<?xml version="1.0" standalone="no"?>
<!DOCTYPE svg PUBLIC "-//W3C//DTD SVG 1.1//EN" "http://www.w3.org/Graphics/SVG/1.1/DTD/svg11.dtd" >
<!--
2017-5-3: Created with FontForge (http://fontforge.org)
-->
<svg xmlns="http://www.w3.org/2000/svg" xmlns:xlink="http://www.w3.org/1999/xlink" version="1.1">
<metadata>
Created by FontForge 20160405 at Wed May  3 19:00:14 2017
 By Apache
Copyright (c) 2017, Apache
</metadata>
<defs>
<font id="Flaticon" horiz-adv-x="512" >
  <font-face 
    font-family="Flaticon"
    font-weight="400"
    font-stretch="normal"
    units-per-em="512"
    panose-1="2 0 5 3 0 0 0 0 0 0"
    ascent="448"
    descent="-64"
    bbox="-0.000560957 -64 512.001 448"
    underline-thickness="25.6"
    underline-position="-51.2"
    unicode-range="U+0020-F106"
  />
    <missing-glyph />
    <glyph glyph-name="space" unicode=" " horiz-adv-x="200" 
 />
    <glyph glyph-name="uniF105" unicode="&#xf105;" 
d="M378.151 157.703l2.58496 -5.26367l0.773438 -1.54688l-4.32031 -2.50879l-28.5615 -16.5068l-6.33887 12.96l13.79 7.99902l5.98047 3.52734l6.03711 3.52832l6.96094 4.01855zM322.142 163.269c-19.2051 8.45117 -32.2031 32.8252 -38.3535 51.8975
c-3.8291 -0.810547 -12.7715 4.01855 -14.5449 11.0928c-1.81055 7.24414 -0.0751953 13.9229 3.84863 15.0361c1.13184 0.358398 2.3584 0.0371094 3.54688 -0.547852v10.7539c0.0371094 0.0371094 0.0371094 0.0371094 0.0751953 0.113281
c-0.0380859 0.0566406 -0.0380859 0.282227 -0.0751953 0.433594v3.7168c0.961914 9.12988 9.5459 26.4111 57.1045 10.8662c16.2998 -5.3584 26.4297 3.13086 31.543 14.4131c16.1484 -1.81152 26.9014 -20.1104 31.0332 -31.3916v-8.94238
c0.660156 0.301758 1.22559 0.52832 1.84863 0.62207c-0.0380859 -0.0566406 -0.0380859 -0.245117 -0.0380859 -0.282227c0.113281 -0.169922 0.321289 -0.0380859 0.660156 0.225586c0.415039 0 0.773438 0.0566406 1.15137 0
c3.9043 -1.13184 5.65918 -7.80957 3.8291 -15.0352c-1.77344 -6.99902 -10.6211 -11.8281 -14.4883 -11.0928c-6.07422 -18.5635 -19.3369 -43.2578 -38.5791 -51.8418c-4.41406 -1.96191 -9.13086 -3.09375 -14.1865 -3.09375
c-5.13184 0 -9.92285 1.09473 -14.375 3.05664zM324.349 131.858l-28.4863 16.6201l-4.32031 2.50879l0.735352 1.50879l2.60352 5.26367l3.01855 6.15039l6.94238 -4.01855l6.03711 -3.52832l6.03711 -3.52734l13.7715 -7.99902zM499.36 365.031v-25.3545v-295.372
v-25.3545c0 -45.8047 -37.2773 -82.9502 -82.9873 -82.9502h-320.708c-45.7666 0 -83.0068 37.2207 -83.0068 82.9502v320.707c0 31.1279 17.4502 57.9922 42.8994 72.2158c14.96 21.7891 40.0137 36.127 68.3867 36.127h49.0488h73.5742h169.786
c45.7666 0 83.0068 -37.1641 83.0068 -82.9688zM210.007 76.8848c-1.11328 -6.1875 0.358398 -12.0928 4.1123 -16.582c3.77344 -4.45215 9.28223 -6.92383 15.5645 -6.92383h213.591c6.24414 0 11.791 2.47168 15.5635 6.92383
c3.75391 4.48926 5.16895 10.3945 4.13184 16.582l-7.88574 44.2959c-2.09375 11.79 -12.9795 23.0342 -24.7324 25.5244l-40.6729 8.56445l-8.35742 17.167c-0.396484 0.849609 -1.15137 1.47168 -1.96191 1.94336c7.37598 9.4707 13.2246 20.6387 17.4688 31.8818
c7.30078 2.6416 14.5645 9.03711 16.6963 17.5264c2.79199 11.2061 -0.151367 21.1855 -7.0752 25.543v7.9043c6.33887 19.0918 9.65918 50.2949 -19.1289 67.1221c-12.9229 7.49023 -23.5811 8.03711 -31.6553 5.3584c-1.24512 3.30078 2.50879 8.01758 2.50879 8.01758
c-6.65918 0.226562 -10.1309 -3.33887 -11.5645 -5.30078c-8.84766 4.09277 -20.4307 5.8291 -35.2588 2.73535c-47.5781 -9.94238 -53.6719 -72.292 -44.9746 -85.9307c-6.79199 -4.41504 -9.67773 -14.3379 -6.90527 -25.3926
c2.11328 -8.4707 9.48926 -14.96 16.7529 -17.583c4.1875 -11.2812 10.0176 -22.4307 17.3369 -31.9004c-0.773438 -0.396484 -1.47168 -1.03809 -1.90527 -1.88672l-8.39551 -17.1299l-40.6543 -8.62109c-11.7715 -2.56543 -22.6191 -13.7334 -24.7129 -25.543z
M56.0293 44.3232c0 -3.50879 0.52832 -6.8291 1.03809 -10.2061l25.4297 7.4707c-0.0751953 0.924805 -0.283203 1.81152 -0.283203 2.75488c0 20.0723 16.3379 36.4287 36.4287 36.4287c20.0918 0 36.4287 -16.2998 36.4287 -36.4287
c0 -20.0918 -16.3369 -36.4473 -36.4287 -36.4473c-13.8281 0 -25.7314 7.80957 -31.9004 19.2041l-25.8643 -7.56445c9.94141 -25.166 34.3906 -43.0879 63.0664 -43.0879h49.0488v431.182v7.50781v7.50879v10.2812h-49.0488
c-13.6963 0 -26.4111 -4.16895 -37.0889 -11.168c-4.32031 -2.83008 -8.26367 -6.15039 -11.8096 -9.84766c-3.26367 -3.41504 -6.1123 -7.16895 -8.62207 -11.2246c-6.4707 -10.3945 -10.3945 -22.5254 -10.3945 -35.6934v-22.2988l26.4492 7.75391
c-0.0751953 0.924805 -0.283203 1.81152 -0.283203 2.75488c0 20.0908 16.3369 36.4277 36.4287 36.4277s36.4287 -16.3184 36.4287 -36.4277c0 -20.1104 -16.3369 -36.4287 -36.4287 -36.4287c-13.8281 0 -25.7324 7.80957 -31.9014 19.2041l-30.7119 -9.03613v-83.29
l26.4492 7.75391c-0.0761719 0.924805 -0.283203 1.81152 -0.283203 2.75488c0 20.0908 16.3369 36.4277 36.4287 36.4277c20.0908 0 36.4287 -16.3184 36.4287 -36.4277c0 -20.1104 -16.3379 -36.4287 -36.4287 -36.4287c-13.8281 0 -25.7324 7.80957 -31.9014 19.2041
l-30.7119 -9.03613v-88.0059l26.4482 7.77246c-0.0751953 0.923828 -0.283203 1.81055 -0.283203 2.75391c0 20.0732 16.3379 36.4287 36.4287 36.4287c20.0918 0 36.4287 -16.3184 36.4287 -36.4287s-16.3369 -36.4473 -36.4287 -36.4473
c-13.8281 0 -25.7314 7.81055 -31.9004 19.2051l-30.7129 -9.03711v-79.8369h0.0566406v0.0185547zM120.774 143.215l-18.7891 -5.52734c3.9043 -5.1123 9.77148 -8.58398 16.6572 -8.58398c11.7725 0 21.3369 9.58398 21.3369 21.3369
c0 11.79 -9.58398 21.3926 -21.3369 21.3926c-11.1494 0 -20.0723 -8.75293 -20.9971 -19.6387l18.8652 5.52734zM120.774 246.954l-18.7891 -5.50879c3.9043 -5.1123 9.77148 -8.60254 16.6572 -8.60254c11.7725 0 21.3369 9.58398 21.3369 21.3555
c0 11.7725 -9.58398 21.374 -21.3369 21.374c-11.1494 0 -20.0723 -8.75293 -20.9971 -19.6387l18.8652 5.52832zM120.774 345.996l-18.7891 -5.50879c3.9043 -5.1123 9.77148 -8.60254 16.6572 -8.60254c11.7725 0 21.3369 9.58398 21.3369 21.3555
c0 11.7725 -9.58398 21.374 -21.3369 21.374c-11.1494 0 -20.0723 -8.75293 -20.9971 -19.6387l18.8652 5.52832zM120.774 37.0986l-18.7891 -5.52734c3.9043 -5.11328 9.77148 -8.58398 16.6572 -8.58398c11.7725 0 21.3369 9.58301 21.3369 21.3359
c0 11.791 -9.58398 21.3936 -21.3369 21.3936c-11.1494 0 -20.0723 -8.75391 -20.9971 -19.6387l18.8652 5.52734zM27.7314 334.432l13.2061 3.86719v26.7324c0 5.67871 0.584961 11.2061 1.67871 16.5635c-9.16797 -11.583 -14.8848 -26.0342 -14.8848 -41.918v-5.24512z
M27.7314 235.39l13.2061 3.86719v83.3086l-13.2061 -3.86719v-83.3086zM27.7314 131.632l13.2061 3.86719v88.0244l-13.2061 -3.86719v-88.0244zM27.7314 25.5146l14.6777 4.32031c-0.830078 4.7168 -1.47168 9.5459 -1.47168 14.5264v75.4229l-13.2061 -3.86719v-90.4023z
M475.458 -13.8184c-15.0732 -15.3193 -35.957 -24.8076 -59.1045 -24.8076h-169.786h-73.5742h-49.0488c-35.5234 0 -65.6514 22.4873 -77.4795 53.916l-17.8271 -5.20703c4.41406 -33.2021 32.6172 -58.9912 67.0088 -58.9912h320.707
c25.5059 -0.0185547 47.5029 14.2246 59.1045 35.0898zM229.702 62.6982c-3.47168 0 -6.45215 1.30176 -8.37598 3.66016c-1.98145 2.32031 -2.7168 5.48926 -2.11328 8.9043l7.88574 44.3145c1.43359 8.07422 9.43262 16.2988 17.4688 18.0156l37.8438 7.99902
c0.264648 -0.169922 0.396484 -0.396484 0.698242 -0.546875l40.8994 -23.7324c0.735352 -0.396484 1.54688 -0.584961 2.3584 -0.584961c0.433594 0 0.923828 0.0751953 1.32031 0.188477c1.24512 0.415039 2.2832 1.26367 2.83008 2.43359l5.94238 12.1875
l5.94238 -12.1875c0.546875 -1.18848 1.58496 -2.03711 2.79199 -2.43359c0.433594 -0.113281 0.924805 -0.188477 1.3584 -0.188477c0.811523 0 1.66016 0.188477 2.3584 0.584961l40.9375 23.7324c0.263672 0.150391 0.433594 0.338867 0.660156 0.546875
l37.8809 -7.99902c8.03613 -1.7168 16.0352 -9.94141 17.4688 -18.0156l7.88574 -44.3145c0.660156 -3.41504 -0.131836 -6.58398 -2.09375 -8.9043c-1.92383 -2.3584 -4.90527 -3.62207 -8.39453 -3.62207h-41.3906v23.9961c0 2.60352 -2.03711 4.67871 -4.64062 4.67871
c-2.58496 0 -4.67871 -2.0752 -4.67871 -4.67871v-23.9961h-112.097v23.9961c0 2.60352 -2.11328 4.67871 -4.69727 4.67871c-2.56543 0 -4.66016 -2.0752 -4.66016 -4.67871v-24.0342h-41.3896z" />
    <glyph glyph-name="uniF103" unicode="&#xf103;" 
d="M488.514 -17.3438c12.833 0 23.2471 -10.4141 23.2578 -23.2793c0 -12.8428 -10.4141 -23.2568 -23.2686 -23.2568h-465.234c-12.8545 0 -23.2686 10.4141 -23.2686 23.2568c0 12.8652 10.4141 23.2793 23.2686 23.2793h465.245zM52.3428 43.1475v0.0107422h5.81738
v209.36h-5.81738c-6.41602 0 -11.623 5.20703 -11.623 11.623s5.19629 11.623 11.623 11.623h407.086c6.41602 0 11.623 -5.20703 11.623 -11.623s-5.18555 -11.623 -11.623 -11.623h-5.80664v-209.371h5.80664c12.8545 0 23.2686 -10.4141 23.2686 -23.2686
s-10.4141 -23.2793 -23.2686 -23.2793h-407.086c-12.8545 0 -23.2686 10.4248 -23.2686 23.2793s10.4141 23.2686 23.2686 23.2686zM407.086 252.519h-69.7832v-209.36h69.7832v209.36zM290.767 252.519h-69.7832v-209.36h69.7832v209.36zM104.675 252.519v-209.36h69.7832
v209.36h-69.7832zM23.2686 296.68c-10.9697 0 -20.4473 7.6582 -22.7461 18.377c-2.30859 10.7197 3.19238 21.5908 13.2031 26.1006l232.64 104.675c6.07812 2.72363 13.0176 2.72363 19.085 0l230.831 -103.868c9.13867 -3.1377 15.7188 -11.7979 15.7188 -22.0156
c0 -12.8545 -10.4033 -23.2686 -23.2686 -23.2686h-0.228516h-465.234z" />
    <glyph glyph-name="uniF106" unicode="&#xf106;" 
d="M505.51 369.006c5.02734 -5.79883 7.31445 -13.5381 6.22461 -21.1982l-26.5977 -186.182c-1.8623 -13.0859 -13.0859 -22.8203 -26.3311 -22.8203h-301.057l4.41504 -26.5977h270.044c14.708 0 26.5977 -11.8896 26.5977 -26.5977s-11.8896 -26.5977 -26.5977 -26.5977
h-292.599c-3.43066 0 -6.67578 0.745117 -9.76074 1.99512c-1.09082 0.425781 -1.96875 1.16992 -2.97949 1.72852c-1.80859 1.01074 -3.58984 2.02148 -5.13281 3.45801c-0.958008 0.904297 -1.70215 1.94141 -2.52637 2.97852
c-1.19727 1.5166 -2.34082 3.00586 -3.19238 4.76172c-0.665039 1.27637 -1.01074 2.60645 -1.43555 4.01562c-0.373047 1.11719 -0.984375 2.10156 -1.19727 3.29785l-49.4717 296.934h-37.3154c-14.709 0 -26.5977 11.8896 -26.5977 26.5977
s11.8887 26.5977 26.5977 26.5977h59.8438c13.0059 0 24.0977 -9.41602 26.2256 -22.2354l5.18652 -30.96h367.549c7.71387 0 15.0273 -3.35156 20.1074 -9.17578zM454.735 324.987h-102.319v-53.1953h94.7393zM325.818 324.987h-79.792v-53.1953h79.792v53.1953z
M325.818 245.194h-79.792v-53.1943h79.792v53.1943zM219.429 324.987h-92.7188l8.99023 -53.9932c1.25 0.399414 2.52637 0.797852 3.93652 0.797852h79.792v53.1953zM140.009 245.194l8.85645 -53.1943h70.5635v53.1943h-79.4199zM352.416 192h83.3291l7.58008 53.1943
h-90.9092v-53.1943zM139.637 -7.48047c0 22.0342 17.8613 39.8965 39.8955 39.8965s39.8965 -17.8623 39.8965 -39.8965s-17.8623 -39.8965 -39.8965 -39.8965s-39.8955 17.8623 -39.8955 39.8965zM379.013 -7.48047c0 22.0342 17.8623 39.8965 39.8965 39.8965
s39.8965 -17.8623 39.8965 -39.8965s-17.8623 -39.8965 -39.8965 -39.8965s-39.8965 17.8623 -39.8965 39.8965z" />
    <glyph glyph-name="uniF104" unicode="&#xf104;" 
d="M40.4209 70.7373v269.474c0 94.3154 97.0107 107.789 215.579 107.789s215.579 -13.4736 215.579 -107.789v-269.474c0 -24.2539 -10.7793 -45.8105 -26.9473 -59.2852v-48.5049c0 -16.168 -10.7793 -26.9473 -26.9473 -26.9473h-26.9473
c-16.1689 0 -26.9482 10.7793 -26.9482 26.9473v26.9473h-215.578v-26.9473c0 -16.168 -10.7793 -26.9473 -26.9482 -26.9473h-26.9473c-16.168 0 -26.9473 10.7793 -26.9473 26.9473v48.5049c-16.168 13.4746 -26.9473 35.0322 -26.9473 59.2852zM134.737 43.7891
c21.5576 0 40.4209 18.8633 40.4209 40.4219c0 21.5576 -18.8633 40.4209 -40.4209 40.4209c-21.5586 0 -40.4219 -18.8633 -40.4219 -40.4209c0 -21.5586 18.8633 -40.4219 40.4219 -40.4219zM377.263 43.7891c21.5586 0 40.4219 18.8633 40.4219 40.4219
c0 21.5576 -18.8633 40.4209 -40.4219 40.4209c-21.5576 0 -40.4209 -18.8633 -40.4209 -40.4209c0 -21.5586 18.8633 -40.4219 40.4209 -40.4219zM417.685 205.474v134.737h-323.369v-134.737h323.369z" />
    <glyph glyph-name="uniF100" unicode="&#xf100;" 
d="M8.5332 345.6c4.71875 0 8.53418 -3.81348 8.5332 -8.53223v-145.067c0 -4.71875 -3.81445 -8.5332 -8.5332 -8.5332s-8.5332 3.81445 -8.5332 8.5332v145.067c0 4.71875 3.81445 8.53223 8.5332 8.53223zM503.467 345.6c4.71875 0 8.5332 -3.81348 8.5332 -8.53223
v-145.067c0 -4.71875 -3.81445 -8.5332 -8.5332 -8.5332s-8.5332 3.81445 -8.5332 8.5332v145.067c0 4.71875 3.81445 8.53223 8.5332 8.53223zM507.733 157.867c2.35547 0 4.2666 -1.91211 4.26758 -4.26758v-110.933c0 -2.35645 -1.91211 -4.2666 -4.2666 -4.2666
h-503.468c-2.35547 0 -4.2666 1.91113 -4.2666 4.2666v110.933c0 2.35547 1.91113 4.26758 4.2666 4.26758h34.1338c2.35547 0 4.2666 -1.91211 4.2666 -4.26758v-21.333c0 -4.71875 3.81445 -8.53223 8.5332 -8.53223s8.5332 3.81348 8.5332 8.53223v21.333
c0 2.35645 1.91113 4.26758 4.2666 4.26758h25.5986c2.35645 0 4.26758 -1.91211 4.26758 -4.26758l0.0078125 -38.3994c0 -4.71875 3.82324 -8.5332 8.5332 -8.5332c4.71875 0 8.5332 3.82324 8.5332 8.5332l-0.00976562 38.3994
c0 2.35645 1.91211 4.26758 4.26758 4.26758h25.5996c2.35645 0 4.26758 -1.91211 4.26758 -4.26758l0.00878906 -21.333c0 -4.71875 3.82324 -8.53223 8.5332 -8.53223c4.71875 0 8.53223 3.82227 8.53223 8.53223l-0.0078125 21.333
c0 2.35645 1.91211 4.26758 4.26758 4.26758h25.5996c2.35645 0 4.2666 -1.91211 4.2666 -4.26758l0.00976562 -38.3994c0 -4.71875 3.82227 -8.5332 8.53223 -8.5332c4.71973 0 8.5332 3.82324 8.5332 8.5332l-0.0078125 38.3994c0 2.35645 1.91211 4.26758 4.2666 4.26758
h25.6006c2.35547 0 4.2666 -1.91211 4.2666 -4.26758l0.00878906 -21.333c0 -4.71875 3.82324 -8.53223 8.5332 -8.53223c4.71875 0 8.5332 3.82227 8.5332 8.53223l-0.00878906 21.333c0 2.35645 1.91211 4.26758 4.2666 4.26758h25.6006
c2.35547 0 4.2666 -1.91211 4.2666 -4.26758l0.00878906 -38.3994c0 -4.71875 3.82324 -8.5332 8.5332 -8.5332c4.71875 0 8.5332 3.82324 8.5332 8.5332l-0.00878906 38.3994c0 2.35645 1.91113 4.26758 4.2666 4.26758h25.5996
c2.35645 0 4.26758 -1.91211 4.26758 -4.26758l0.0078125 -21.333c0 -4.71875 3.82324 -8.53223 8.5332 -8.53223c4.71875 0 8.5332 3.82227 8.5332 8.53223l-0.00976562 21.333c0 2.35645 1.91211 4.26758 4.26758 4.26758h25.5996
c2.35645 0 4.26758 -1.91211 4.26758 -4.26758l0.0166016 -38.3994c0 -4.71875 3.82324 -8.5332 8.5332 -8.5332c4.71875 0 8.5332 3.82324 8.5332 8.5332l-0.00878906 38.3994c0 2.35645 1.91211 4.26758 4.26758 4.26758h25.5996
c2.35645 0 4.26758 -1.91211 4.26758 -4.26758l0.00878906 -21.3418c0 -4.71094 3.82324 -8.52441 8.5332 -8.52441c4.71875 0 8.53223 3.82227 8.53223 8.54199l-0.00878906 21.3242c0 2.35645 1.91211 4.26758 4.26758 4.26758h34.125zM476.032 265.737
c1.21973 -1.58789 1.83496 -3.52441 1.83496 -5.4707c0 -1.94531 -0.614258 -3.88281 -1.84277 -5.46973l-39.6201 -51.2002c-1.54492 -1.97852 -3.78906 -3.0625 -6.09375 -3.0625c-0.904297 0 -1.81738 0.170898 -2.69629 0.511719
c-3.13086 1.21973 -5.22266 4.42773 -5.22266 8.02148v42.667h-332.8v-42.667c0 -3.58398 -2.08984 -6.79199 -5.22168 -8.02148c-0.878906 -0.34082 -1.79199 -0.511719 -2.69727 -0.511719c-2.30371 0 -4.54785 1.08301 -6.08398 3.0625l-39.6201 51.2002
c-1.2207 1.58691 -1.83496 3.5332 -1.83496 5.46973c0 1.9375 0.615234 3.88281 1.83496 5.46094l39.6201 51.208c2.15039 2.77344 5.65723 3.78027 8.78906 2.56055c3.13086 -1.21973 5.22168 -4.42773 5.22168 -8.02148v-42.6748h332.802v42.667
c0 3.59277 2.08984 6.80078 5.22168 8.03027c3.13086 1.20312 6.64648 0.205078 8.78906 -2.56055z" />
    <glyph glyph-name="uniF101" unicode="&#xf101;" 
d="M501.438 335.258c7.83984 0 12.2812 -6.05957 9.93457 -13.5352l-41.1621 -141.624c-2.30664 -7.46582 -10.5312 -13.5146 -18.3506 -13.5146h-195.744c-7.81934 0 -16.0537 6.04883 -18.3809 13.5146l-47.2314 138.356
c-2.88281 9.28613 2.65039 16.8027 12.3721 16.8027h298.562zM185.214 7.19629c0 24.666 19.9951 44.6621 44.6611 44.6621c24.667 0 44.6621 -19.9961 44.6621 -44.6621s-19.9951 -44.6621 -44.6621 -44.6621c-24.666 0 -44.6611 19.9961 -44.6611 44.6621zM374.2 6.63965
c0 24.666 19.9961 44.6621 44.6621 44.6621s44.6621 -19.9961 44.6621 -44.6621s-19.9961 -44.6621 -44.6621 -44.6621s-44.6621 19.9961 -44.6621 44.6621zM472.487 121.133c13.9697 0 25.29 -11.3203 25.29 -25.29c0 -13.9707 -11.3203 -25.29 -25.29 -25.29h-297.178
l-104.568 300.89h-45.4512c-13.9707 0 -25.29 11.3193 -25.29 25.29c0 13.9697 11.3193 25.29 25.29 25.29h81.4238l104.568 -300.89h261.205z" />
    <glyph glyph-name="uniF102" unicode="&#xf102;" 
d="M412.497 87.9941c0 0 63.8438 -151.996 29.2217 -151.993h-371.433c-34.6289 0 29.2139 151.993 29.2139 151.993c4.34473 9.43164 12.8838 14.8428 21.5742 18.4053l58.7354 27.0439l28.2168 23.7969l45.3369 -45.0928h0.0302734l-19.5654 -130.805
c-0.0673828 -0.445312 0.0449219 -0.907227 0.31543 -1.27441l20.4561 -27.998c0.325195 -0.447266 0.84375 -0.710938 1.39746 -0.710938s1.07227 0.260742 1.39746 0.710938l20.459 27.998c0.266602 0.367188 0.382812 0.826172 0.3125 1.27441l-19.5674 130.802
h0.0341797l45.3398 45.0957l28.2168 -23.7969l58.7314 -27.0439c8.68848 -3.5625 17.7949 -9.35645 21.5762 -18.4053zM416.576 296.394c0.884766 0.0957031 1.68066 0.517578 2.22754 1.20117c0.554688 0.682617 0.805664 1.5625 0.707031 2.4375
c-0.657227 5.61426 -1.31738 11.2158 -1.96875 16.8301l-1.36914 11.748c-0.208984 1.75391 -1.77734 3.0293 -3.54395 2.87109l-2.54004 -0.00390625l0.0478516 39.4355l1.33008 0.482422l4.43262 1.60059c3.75488 1.3584 6.25391 4.91797 6.25391 8.90625
c0 3.98926 -2.49902 7.5498 -6.25391 8.90918l-156.684 56.623c-2.08301 0.75293 -4.36133 0.75293 -6.44043 0l-156.686 -56.623c-3.75195 -1.35938 -6.25195 -4.91992 -6.25195 -8.90918c0 -3.98828 2.5 -7.54785 6.25195 -8.90625l57.9219 -20.9326
c-4.08789 -12.9082 -5.94922 -27.6865 -5.78223 -44.1416c1.01953 -93.8564 55.5029 -149.825 105.917 -149.825c49.8242 0 104.898 55.9688 105.913 149.825c0.168945 15.9482 -1.58984 30.3135 -5.41504 42.9355l42.1162 15.2197l0.0888672 -34.6143l-2.54395 0.000976562
c-1.76758 0.154297 -3.33789 -1.11621 -3.54004 -2.88379l-3.29395 -28.5801c-0.0996094 -0.871094 0.157227 -1.74121 0.708984 -2.42578c0.551758 -0.681641 1.35547 -1.11914 2.22754 -1.19141zM254.153 180.889c-43.9844 0 -74.335 51.5254 -80.457 103.033
c-5.66113 47.6357 63.2275 49.8525 67.2285 20.3281c1.23242 -9.07715 -9.18945 -18.7998 -8.00684 -22.5479c5.8291 -18.5049 102.354 60.3975 101.694 2.24316c-0.464844 -41.0596 -38.5508 -103.057 -80.459 -103.057z" />
  </font>
</defs></svg>
