{
    "cordova-plugin-geolocation": {
        "source": {
            "type": "registry",
            "id": "cordova-plugin-geolocation"
        },
        "is_top_level": true,
        "variables": {
            "GEOLOCATION_USAGE_DESCRIPTION": " "
        }
    },
    "cordova-plugin-compat": {
        "source": {
            "type": "registry",
            "id": "cordova-plugin-compat@^1.1.0"
        },
        "is_top_level": true,
        "variables": {}
    },
    "cordova-plugin-contacts": {
        "source": {
            "type": "registry",
            "id": "cordova-plugin-contacts"
        },
        "is_top_level": true,
        "variables": {
            "CONTACTS_USAGE_DESCRIPTION": " "
        }
    },
    "cordova-plugin-inappbrowser": {
        "source": {
            "type": "registry",
            "id": "cordova-plugin-inappbrowser@1.7.1"
        },
        "is_top_level": true,
        "variables": {}
    },
    "cordova-plugin-network-information": {
        "source": {
            "type": "registry",
            "id": "cordova-plugin-network-information"
        },
        "is_top_level": true,
        "variables": {}
    },
    "cordova-plugin-splashscreen": {
        "source": {
            "type": "registry",
            "id": "cordova-plugin-splashscreen@4.0.3"
        },
        "is_top_level": true,
        "variables": {}
    },
    "cordova-plugin-whitelist": {
        "source": {
            "type": "registry",
            "id": "cordova-plugin-whitelist@1.3.2"
        },
        "is_top_level": true,
        "variables": {}
    },
    "cordova-custom-config": {
        "source": {
            "type": "registry",
            "id": "cordova-custom-config"
        },
        "is_top_level": true,
        "variables": {}
    },
    "mobi.moica.whatsapp": {
        "source": {
            "type": "git",
            "url": "https://github.com/ranjitpandit/whatsapp-phonegap-plugin.git",
            "subdir": "."
        },
        "is_top_level": true,
        "variables": {}
    },
    "cordova-plugin-x-socialsharing": {
        "source": {
            "type": "registry",
            "id": "cordova-plugin-x-socialsharing"
        },
        "is_top_level": true,
        "variables": {}
    },
    "es6-promise-plugin": {
        "source": {
            "type": "registry",
            "id": "es6-promise-plugin"
        },
        "is_top_level": false,
        "variables": {}
    },
    "cordova-plugin-dialogs": {
        "source": {
            "type": "registry",
            "id": "cordova-plugin-dialogs"
        },
        "is_top_level": true,
        "variables": {}
    },
    "cordova-plugin-vibration": {
        "source": {
            "type": "registry",
            "id": "cordova-plugin-vibration"
        },
        "is_top_level": true,
        "variables": {}
    },
    "call-number": {
        "source": {
            "type": "registry",
            "id": "https://github.com/Rohfosho/CordovaCallNumberPlugin.git"
        },
        "is_top_level": true,
        "variables": {}
    }
}